module gitlab.com/slhamptonii/dnd/qry_items

go 1.14

require (
	github.com/aws/aws-lambda-go v1.20.0
	github.com/aws/aws-sdk-go v1.36.0
	github.com/stretchr/testify v1.6.1
	gitlab.com/slhamptonii/sheldonsandbox-core/v2 v2.7.0
)
